Library\Bee\artifacts\mvdfrm\Unity.Services.Core.ref.dll_8733AE466239FA82.mvfrm
Library\Bee\artifacts\mvdfrm\UnityEngine.UI.ref.dll_FAE6DBEA21006BE5.mvfrm
Library\Bee\artifacts\mvdfrm\Unity.VisualScripting.Antlr3.Runtime.dll_E046B3DF090D40D9.mvfrm
Library\Bee\artifacts\mvdfrm\UnityEngine.AccessibilityModule.dll_130F0850FFCE293A.mvfrm
Library\Bee\artifacts\mvdfrm\UnityEngine.AIModule.dll_3E71A8A55666A220.mvfrm
Library\Bee\artifacts\mvdfrm\UnityEngine.AndroidJNIModule.dll_463446AFB97677DE.mvfrm
Library\Bee\artifacts\mvdfrm\UnityEngine.AnimationModule.dll_5F5A3BFE33172960.mvfrm
Library\Bee\artifacts\mvdfrm\UnityEngine.ARModule.dll_F7E46DA8B38400E9.mvfrm
Library\Bee\artifacts\mvdfrm\UnityEngine.AssetBundleModule.dll_18D9C02EEC222C8E.mvfrm
Library\Bee\artifacts\mvdfrm\UnityEngine.AudioModule.dll_473D221315173252.mvfrm
Library\Bee\artifacts\mvdfrm\UnityEngine.ClothModule.dll_AE257F0DEF341136.mvfrm
Library\Bee\artifacts\mvdfrm\UnityEngine.ClusterInputModule.dll_90B6DD3B312DACC8.mvfrm
Library\Bee\artifacts\mvdfrm\UnityEngine.ClusterRendererModule.dll_B7240B8D31ED6BB9.mvfrm
Library\Bee\artifacts\mvdfrm\UnityEngine.CoreModule.dll_736083B5818FF077.mvfrm
Library\Bee\artifacts\mvdfrm\UnityEngine.CrashReportingModule.dll_7C52C03E36FBF46F.mvfrm
Library\Bee\artifacts\mvdfrm\UnityEngine.DirectorModule.dll_60495510B9992454.mvfrm
Library\Bee\artifacts\mvdfrm\UnityEngine.dll_3579D4C4428E2F6E.mvfrm
Library\Bee\artifacts\mvdfrm\UnityEngine.DSPGraphModule.dll_659AB67A2BF9F575.mvfrm
Library\Bee\artifacts\mvdfrm\UnityEngine.GameCenterModule.dll_708190CA7FB768CF.mvfrm
Library\Bee\artifacts\mvdfrm\UnityEngine.GIModule.dll_D6ADF1B2F2158A3A.mvfrm
Library\Bee\artifacts\mvdfrm\UnityEngine.GridModule.dll_50D19FA399E4866E.mvfrm
Library\Bee\artifacts\mvdfrm\UnityEngine.HotReloadModule.dll_E0A2FA040E4A44E2.mvfrm
Library\Bee\artifacts\mvdfrm\UnityEngine.ImageConversionModule.dll_2316093DB41223AD.mvfrm
Library\Bee\artifacts\mvdfrm\UnityEngine.IMGUIModule.dll_7F9CC179DB48C633.mvfrm
Library\Bee\artifacts\mvdfrm\UnityEngine.InputLegacyModule.dll_AA1EDB4D8413E27F.mvfrm
Library\Bee\artifacts\mvdfrm\UnityEngine.InputModule.dll_ADB2E9C38B4F56F6.mvfrm
Library\Bee\artifacts\mvdfrm\UnityEngine.JSONSerializeModule.dll_7326918CFF0989C4.mvfrm
Library\Bee\artifacts\mvdfrm\UnityEngine.LocalizationModule.dll_CF03A78DC8A99FC1.mvfrm
Library\Bee\artifacts\mvdfrm\UnityEngine.ParticleSystemModule.dll_CF65098AA50D7FFD.mvfrm
Library\Bee\artifacts\mvdfrm\UnityEngine.PerformanceReportingModule.dll_42207E7F0737BC36.mvfrm
Library\Bee\artifacts\mvdfrm\UnityEngine.Physics2DModule.dll_AC002BEED41420F5.mvfrm
Library\Bee\artifacts\mvdfrm\UnityEngine.PhysicsModule.dll_D246F9E241C23B63.mvfrm
Library\Bee\artifacts\mvdfrm\UnityEngine.ProfilerModule.dll_928F8E4752F2AB61.mvfrm
Library\Bee\artifacts\mvdfrm\UnityEngine.RuntimeInitializeOnLoadManagerInitializerModule.dll_57A612E645E6FBBE.mvfrm
Library\Bee\artifacts\mvdfrm\UnityEngine.ScreenCaptureModule.dll_8D0E3F121375B626.mvfrm
Library\Bee\artifacts\mvdfrm\UnityEngine.SharedInternalsModule.dll_A72748132B401EFD.mvfrm
Library\Bee\artifacts\mvdfrm\UnityEngine.SpriteMaskModule.dll_59AE035AA126FE49.mvfrm
Library\Bee\artifacts\mvdfrm\UnityEngine.SpriteShapeModule.dll_323AED89A1C46498.mvfrm
Library\Bee\artifacts\mvdfrm\UnityEngine.StreamingModule.dll_13EF294E829EE09E.mvfrm
Library\Bee\artifacts\mvdfrm\UnityEngine.SubstanceModule.dll_F09A3D97CDF1DEAC.mvfrm
Library\Bee\artifacts\mvdfrm\UnityEngine.SubsystemsModule.dll_C45B69BC6F6EE65C.mvfrm
Library\Bee\artifacts\mvdfrm\UnityEngine.TerrainModule.dll_EC8D755117808451.mvfrm
Library\Bee\artifacts\mvdfrm\UnityEngine.TerrainPhysicsModule.dll_CFDFB25DBE507A8A.mvfrm
Library\Bee\artifacts\mvdfrm\UnityEngine.TextCoreFontEngineModule.dll_46402A415E53B015.mvfrm
Library\Bee\artifacts\mvdfrm\UnityEngine.TextCoreTextEngineModule.dll_8E2860B2EDD76933.mvfrm
Library\Bee\artifacts\mvdfrm\UnityEngine.TextRenderingModule.dll_B64DB11CCAAD361B.mvfrm
Library\Bee\artifacts\mvdfrm\UnityEngine.TilemapModule.dll_8B89DCD22F3D655A.mvfrm
Library\Bee\artifacts\mvdfrm\UnityEngine.TLSModule.dll_9AE0B4CBB5B67B77.mvfrm
Library\Bee\artifacts\mvdfrm\UnityEngine.UIElementsModule.dll_C899CB24729B2253.mvfrm
Library\Bee\artifacts\mvdfrm\UnityEngine.UIElementsNativeModule.dll_3F727EFF7A913BCA.mvfrm
Library\Bee\artifacts\mvdfrm\UnityEngine.UIModule.dll_39E546D2B2ADA7CC.mvfrm
Library\Bee\artifacts\mvdfrm\UnityEngine.UmbraModule.dll_C211CE2BA23DDDC5.mvfrm
Library\Bee\artifacts\mvdfrm\UnityEngine.UNETModule.dll_0606CB9ECE9EE5F0.mvfrm
Library\Bee\artifacts\mvdfrm\UnityEngine.UnityAnalyticsModule.dll_EF047A545134D1F9.mvfrm
Library\Bee\artifacts\mvdfrm\UnityEngine.UnityConnectModule.dll_FE79EC347A2DDAAD.mvfrm
Library\Bee\artifacts\mvdfrm\UnityEngine.UnityCurlModule.dll_9276DD2FA32B1B4D.mvfrm
Library\Bee\artifacts\mvdfrm\UnityEngine.UnityTestProtocolModule.dll_F20B9C40B357D63B.mvfrm
Library\Bee\artifacts\mvdfrm\UnityEngine.UnityWebRequestAssetBundleModule.dll_29DC1BAB8780478A.mvfrm
Library\Bee\artifacts\mvdfrm\UnityEngine.UnityWebRequestAudioModule.dll_BA1CD25D8DA286CE.mvfrm
Library\Bee\artifacts\mvdfrm\UnityEngine.UnityWebRequestModule.dll_34B510E7BF06BE2C.mvfrm
Library\Bee\artifacts\mvdfrm\UnityEngine.UnityWebRequestTextureModule.dll_90545DD557B22263.mvfrm
Library\Bee\artifacts\mvdfrm\UnityEngine.UnityWebRequestWWWModule.dll_58EAA60EDD97259F.mvfrm
Library\Bee\artifacts\mvdfrm\UnityEngine.VehiclesModule.dll_D80C4E9033C2F3EF.mvfrm
Library\Bee\artifacts\mvdfrm\UnityEngine.VFXModule.dll_1BBF4D3A8C23E4E4.mvfrm
Library\Bee\artifacts\mvdfrm\UnityEngine.VideoModule.dll_6C46A67DD7A94DF7.mvfrm
Library\Bee\artifacts\mvdfrm\UnityEngine.VirtualTexturingModule.dll_63FF336E533FBC55.mvfrm
Library\Bee\artifacts\mvdfrm\UnityEngine.VRModule.dll_8CB76D5854682D44.mvfrm
Library\Bee\artifacts\mvdfrm\UnityEngine.WindModule.dll_E9AF5EDE12C66EE0.mvfrm
Library\Bee\artifacts\mvdfrm\UnityEngine.XRModule.dll_BF76305CDDA27AA2.mvfrm