Library\Bee\artifacts\mvdfrm\Unity.EditorCoroutines.Editor.ref.dll_34ED10A34098B2DB.mvfrm
Library\Bee\artifacts\mvdfrm\Unity.Performance.Profile-Analyzer.Editor.ref.dll_65A192712782EB2B.mvfrm
Library\Bee\artifacts\mvdfrm\Unity.PlasticSCM.Editor.ref.dll_257AEB342BE77856.mvfrm
Library\Bee\artifacts\mvdfrm\Unity.Rider.Editor.ref.dll_9B5591808ABA37AF.mvfrm
Library\Bee\artifacts\mvdfrm\Unity.Services.Core.Analytics.ref.dll_EDA1682A714EA6BF.mvfrm
Library\Bee\artifacts\mvdfrm\Unity.Services.Core.Environments.ref.dll_7E0AC2CDE81D9C6D.mvfrm
Library\Bee\artifacts\mvdfrm\Unity.Services.Core.ref.dll_131AC9C5EC6E6517.mvfrm
Library\Bee\artifacts\mvdfrm\Unity.TestTools.CodeCoverage.Editor.OpenCover.Model.ref.dll_D3B9364D6FB03093.mvfrm
Library\Bee\artifacts\mvdfrm\Unity.TestTools.CodeCoverage.Editor.OpenCover.Mono.Reflection.ref.dll_E668CD773429A040.mvfrm
Library\Bee\artifacts\mvdfrm\Unity.TestTools.CodeCoverage.Editor.ref.dll_F09CF4826CE11CD9.mvfrm
Library\Bee\artifacts\mvdfrm\Unity.TextMeshPro.Editor.ref.dll_159E061D77A10B86.mvfrm
Library\Bee\artifacts\mvdfrm\Unity.TextMeshPro.ref.dll_84A4293DBDD182DB.mvfrm
Library\Bee\artifacts\mvdfrm\Unity.Timeline.Editor.ref.dll_0D3D3C0B73557612.mvfrm
Library\Bee\artifacts\mvdfrm\Unity.Timeline.ref.dll_621CDDF9C514DF8F.mvfrm
Library\Bee\artifacts\mvdfrm\Unity.VSCode.Editor.ref.dll_3628369EB48E4C19.mvfrm
Library\Bee\artifacts\mvdfrm\Unity.VisualScripting.Core.Editor.ref.dll_EDC8690F57C5BDFD.mvfrm
Library\Bee\artifacts\mvdfrm\Unity.VisualScripting.Core.ref.dll_D75DF4EA1AFE54F4.mvfrm
Library\Bee\artifacts\mvdfrm\Unity.VisualScripting.Flow.Editor.ref.dll_6AF951BE66A4493E.mvfrm
Library\Bee\artifacts\mvdfrm\Unity.VisualScripting.Flow.ref.dll_1E6ED5409D07C9A3.mvfrm
Library\Bee\artifacts\mvdfrm\Unity.VisualScripting.SettingsProvider.Editor.ref.dll_A1A44354E0B583A8.mvfrm
Library\Bee\artifacts\mvdfrm\Unity.VisualScripting.Shared.Editor.ref.dll_9669F6EBFF6DFFB7.mvfrm
Library\Bee\artifacts\mvdfrm\Unity.VisualScripting.State.Editor.ref.dll_E03858E727F23F6F.mvfrm
Library\Bee\artifacts\mvdfrm\Unity.VisualScripting.State.ref.dll_D91762B7076BE462.mvfrm
Library\Bee\artifacts\mvdfrm\Unity.VisualStudio.Editor.ref.dll_3A975DBA53ABA4AD.mvfrm
Library\Bee\artifacts\mvdfrm\UnityEditor.TestRunner.ref.dll_193EC4CE382CBFB3.mvfrm
Library\Bee\artifacts\mvdfrm\UnityEditor.UI.ref.dll_4C98D3F7040CD4F5.mvfrm
Library\Bee\artifacts\mvdfrm\UnityEngine.TestRunner.ref.dll_E55D0F7C63F01D9E.mvfrm
Library\Bee\artifacts\mvdfrm\UnityEngine.UI.ref.dll_08FEAA520A2EFD60.mvfrm
Library\Bee\artifacts\mvdfrm\Unity.Plastic.Antlr3.Runtime.dll_6BDAC91441C943A4.mvfrm
Library\Bee\artifacts\mvdfrm\Unity.Plastic.Newtonsoft.Json.dll_DB2B6F9ABA8B9D51.mvfrm
Library\Bee\artifacts\mvdfrm\Unity.VisualScripting.IonicZip.dll_C3B44306926A3C62.mvfrm
Library\Bee\artifacts\mvdfrm\Unity.VisualScripting.YamlDotNet.dll_2ED98CFDD84430BA.mvfrm
Library\Bee\artifacts\mvdfrm\Unity.VisualScripting.TextureAssets.dll_C5F7B65199118EB2.mvfrm
Library\Bee\artifacts\mvdfrm\Unity.VisualScripting.Antlr3.Runtime.dll_E046B3DF090D40D9.mvfrm
Library\Bee\artifacts\mvdfrm\UnityEditor.Graphs.dll_0E8AB59E0F400D54.mvfrm
Library\Bee\artifacts\mvdfrm\UnityEditor.CoreModule.dll_A4A1510687AD2522.mvfrm
Library\Bee\artifacts\mvdfrm\UnityEditor.DeviceSimulatorModule.dll_BF1FA794DEA2603F.mvfrm
Library\Bee\artifacts\mvdfrm\UnityEditor.DiagnosticsModule.dll_1D7BFEFBC39DEACD.mvfrm
Library\Bee\artifacts\mvdfrm\UnityEditor.dll_1F0479CA5A4FBAD3.mvfrm
Library\Bee\artifacts\mvdfrm\UnityEditor.GraphViewModule.dll_4A70C04C75A63704.mvfrm
Library\Bee\artifacts\mvdfrm\UnityEditor.PackageManagerUIModule.dll_C3C3E94C2DAA5BFE.mvfrm
Library\Bee\artifacts\mvdfrm\UnityEditor.QuickSearchModule.dll_A88B80091C74E726.mvfrm
Library\Bee\artifacts\mvdfrm\UnityEditor.SceneTemplateModule.dll_E12E8B6AAA212667.mvfrm
Library\Bee\artifacts\mvdfrm\UnityEditor.TextCoreFontEngineModule.dll_23C41E3D38088860.mvfrm
Library\Bee\artifacts\mvdfrm\UnityEditor.TextCoreTextEngineModule.dll_6BAC54AEC78C417E.mvfrm
Library\Bee\artifacts\mvdfrm\UnityEditor.UIBuilderModule.dll_9EF96D68E85EB038.mvfrm
Library\Bee\artifacts\mvdfrm\UnityEditor.UIElementsModule.dll_213A63E0F3E9951E.mvfrm
Library\Bee\artifacts\mvdfrm\UnityEditor.UIElementsSamplesModule.dll_2410406864FF882F.mvfrm
Library\Bee\artifacts\mvdfrm\UnityEditor.UIServiceModule.dll_D7EB7ECBD1960052.mvfrm
Library\Bee\artifacts\mvdfrm\UnityEditor.UnityConnectModule.dll_04EFF245B13264D8.mvfrm
Library\Bee\artifacts\mvdfrm\UnityEngine.AccessibilityModule.dll_13D3F701AA974E04.mvfrm
Library\Bee\artifacts\mvdfrm\UnityEngine.AIModule.dll_873FA6764B1EA336.mvfrm
Library\Bee\artifacts\mvdfrm\UnityEngine.AndroidJNIModule.dll_9F834CB43D0903F4.mvfrm
Library\Bee\artifacts\mvdfrm\UnityEngine.AnimationModule.dll_18F63C7550030BAA.mvfrm
Library\Bee\artifacts\mvdfrm\UnityEngine.ARModule.dll_40B26B79A83C01FF.mvfrm
Library\Bee\artifacts\mvdfrm\UnityEngine.AssetBundleModule.dll_EC74B2FA7EDB9C18.mvfrm
Library\Bee\artifacts\mvdfrm\UnityEngine.AudioModule.dll_5371FF9AF6FA721C.mvfrm
Library\Bee\artifacts\mvdfrm\UnityEngine.AutoStreamingModule.dll_3041B0B97D25E0D9.mvfrm
Library\Bee\artifacts\mvdfrm\UnityEngine.ClothModule.dll_BA5A5C95D1175100.mvfrm
Library\Bee\artifacts\mvdfrm\UnityEngine.ClusterInputModule.dll_848C675B62BA379E.mvfrm
Library\Bee\artifacts\mvdfrm\UnityEngine.ClusterRendererModule.dll_C4CC6A064E5D6DC3.mvfrm
Library\Bee\artifacts\mvdfrm\UnityEngine.CoreModule.dll_C7C224592FB2904D.mvfrm
Library\Bee\artifacts\mvdfrm\UnityEngine.CrashReportingModule.dll_BE05CF1131E9D605.mvfrm
Library\Bee\artifacts\mvdfrm\UnityEngine.DirectorModule.dll_AF080FF5F31E09AA.mvfrm
Library\Bee\artifacts\mvdfrm\UnityEngine.dll_51A8C0A2B8C347B8.mvfrm
Library\Bee\artifacts\mvdfrm\UnityEngine.DSPGraphModule.dll_B459715F657EDACB.mvfrm
Library\Bee\artifacts\mvdfrm\UnityEngine.GameCenterModule.dll_C9D096CF0349F4E5.mvfrm
Library\Bee\artifacts\mvdfrm\UnityEngine.GIModule.dll_1F7BEF83E6CD8B50.mvfrm
Library\Bee\artifacts\mvdfrm\UnityEngine.GridModule.dll_A533404748072644.mvfrm
Library\Bee\artifacts\mvdfrm\UnityEngine.HotReloadModule.dll_9A3EFA7B2B36272C.mvfrm
Library\Bee\artifacts\mvdfrm\UnityEngine.ImageConversionModule.dll_30BE67B6D08225B7.mvfrm
Library\Bee\artifacts\mvdfrm\UnityEngine.IMGUIModule.dll_8BD19F01BD2C05FD.mvfrm
Library\Bee\artifacts\mvdfrm\UnityEngine.InputLegacyModule.dll_7DB9CE1916CD5209.mvfrm
Library\Bee\artifacts\mvdfrm\UnityEngine.InputModule.dll_B9E7C74B6D3296C0.mvfrm
Library\Bee\artifacts\mvdfrm\UnityEngine.JSONSerializeModule.dll_73EB803DA9D2AE8E.mvfrm
Library\Bee\artifacts\mvdfrm\UnityEngine.LocalizationModule.dll_C2D931ADFA362A97.mvfrm
Library\Bee\artifacts\mvdfrm\UnityEngine.NVIDIAModule.dll_7C17871726FD8059.mvfrm
Library\Bee\artifacts\mvdfrm\UnityEngine.ParticleSystemModule.dll_1118185D9FFB6193.mvfrm
Library\Bee\artifacts\mvdfrm\UnityEngine.PerformanceReportingModule.dll_50F8008C7E23B20C.mvfrm
Library\Bee\artifacts\mvdfrm\UnityEngine.Physics2DModule.dll_659C2C65F100033F.mvfrm
Library\Bee\artifacts\mvdfrm\UnityEngine.PhysicsModule.dll_CBB96325EC6DB86D.mvfrm
Library\Bee\artifacts\mvdfrm\UnityEngine.ProfilerModule.dll_E14E492C8C7790B7.mvfrm
Library\Bee\artifacts\mvdfrm\UnityEngine.RuntimeInitializeOnLoadManagerInitializerModule.dll_C1FE4D835A1E7208.mvfrm
Library\Bee\artifacts\mvdfrm\UnityEngine.ScreenCaptureModule.dll_8DD32DC2BE3EDAF0.mvfrm
Library\Bee\artifacts\mvdfrm\UnityEngine.SharedInternalsModule.dll_B4CFA68C47B02107.mvfrm
Library\Bee\artifacts\mvdfrm\UnityEngine.SpriteMaskModule.dll_B2FD095F24B98A5F.mvfrm
Library\Bee\artifacts\mvdfrm\UnityEngine.SpriteShapeModule.dll_05D5E055347DD422.mvfrm
Library\Bee\artifacts\mvdfrm\UnityEngine.StreamingModule.dll_CD8B29C59F8AC2E8.mvfrm
Library\Bee\artifacts\mvdfrm\UnityEngine.SubstanceModule.dll_AA363E0EEADDC0F6.mvfrm
Library\Bee\artifacts\mvdfrm\UnityEngine.SubsystemsModule.dll_1DAA6FC0F3017272.mvfrm
Library\Bee\artifacts\mvdfrm\UnityEngine.TerrainModule.dll_E5FFDE94C22C015B.mvfrm
Library\Bee\artifacts\mvdfrm\UnityEngine.TerrainPhysicsModule.dll_1192C130B93E5C20.mvfrm
Library\Bee\artifacts\mvdfrm\UnityEngine.TextCoreFontEngineModule.dll_A22399904B06472B.mvfrm
Library\Bee\artifacts\mvdfrm\UnityEngine.TextCoreTextEngineModule.dll_EA0BD001DA8A0049.mvfrm
Library\Bee\artifacts\mvdfrm\UnityEngine.TextRenderingModule.dll_B7129FCD75765AE5.mvfrm
Library\Bee\artifacts\mvdfrm\UnityEngine.TilemapModule.dll_84FC4615D9E8E264.mvfrm
Library\Bee\artifacts\mvdfrm\UnityEngine.TLSModule.dll_1B865D620ED4A601.mvfrm
Library\Bee\artifacts\mvdfrm\UnityEngine.UIElementsModule.dll_21E8D128F62DAE69.mvfrm
Library\Bee\artifacts\mvdfrm\UnityEngine.UIElementsNativeModule.dll_0E3D9DE19F22CC20.mvfrm
Library\Bee\artifacts\mvdfrm\UnityEngine.UIModule.dll_82B344A3A765A8E2.mvfrm
Library\Bee\artifacts\mvdfrm\UnityEngine.UmbraModule.dll_CE46ABB384211D8F.mvfrm
Library\Bee\artifacts\mvdfrm\UnityEngine.UNETModule.dll_5A686C427CC185C6.mvfrm
Library\Bee\artifacts\mvdfrm\UnityEngine.UnityAnalyticsModule.dll_30B789274C22B38F.mvfrm
Library\Bee\artifacts\mvdfrm\UnityEngine.UnityConnectModule.dll_F24F7654ABBA6583.mvfrm
Library\Bee\artifacts\mvdfrm\UnityEngine.UnityCurlModule.dll_4C12DDA6C016FD97.mvfrm
Library\Bee\artifacts\mvdfrm\UnityEngine.UnityTestProtocolModule.dll_DFD2F65ABEFADD85.mvfrm
Library\Bee\artifacts\mvdfrm\UnityEngine.UnityWebRequestAssetBundleModule.dll_8DAAE37F5A5869A0.mvfrm
Library\Bee\artifacts\mvdfrm\UnityEngine.UnityWebRequestAudioModule.dll_C8F4546B048E7CA4.mvfrm
Library\Bee\artifacts\mvdfrm\UnityEngine.UnityWebRequestModule.dll_425D6F60DB76C036.mvfrm
Library\Bee\artifacts\mvdfrm\UnityEngine.UnityWebRequestTextureModule.dll_CAC2B5E68FEACEF9.mvfrm
Library\Bee\artifacts\mvdfrm\UnityEngine.UnityWebRequestWWWModule.dll_B4CE155DCA49BCB5.mvfrm
Library\Bee\artifacts\mvdfrm\UnityEngine.VehiclesModule.dll_26CB09756D47D945.mvfrm
Library\Bee\artifacts\mvdfrm\UnityEngine.VFXModule.dll_9C64F5D0E5420F6E.mvfrm
Library\Bee\artifacts\mvdfrm\UnityEngine.VideoModule.dll_787B8405B98C8DC1.mvfrm
Library\Bee\artifacts\mvdfrm\UnityEngine.VirtualTexturingModule.dll_32CA525077D14CAB.mvfrm
Library\Bee\artifacts\mvdfrm\UnityEngine.VRModule.dll_D5856B2949202E5A.mvfrm
Library\Bee\artifacts\mvdfrm\UnityEngine.WindModule.dll_3E10FF81C0E90EB6.mvfrm
Library\Bee\artifacts\mvdfrm\UnityEngine.XRModule.dll_08442E2DD25A7BB8.mvfrm
Library\Bee\artifacts\mvdfrm\UnityEditor.WebGL.Extensions.dll_D0159FF87EF000AE.mvfrm
Library\Bee\artifacts\mvdfrm\UnityEditor.WindowsStandalone.Extensions.dll_47EFCEF02811B09E.mvfrm